Análise descritiva: Projeto CnAF/VNI
…
Comparação

## # A tibble: 271 x 2
##    Sexo      Grupo
##    <chr>     <chr>
##  1 masculino Int  
##  2 masculino Int  
##  3 masculino Int  
##  4 masculino Int  
##  5 feminino  Int  
##  6 feminino  Int  
##  7 masculino Int  
##  8 masculino Int  
##  9 masculino Int  
## 10 masculino Int  
## # ... with 261 more rows

## # A tibble: 197 x 2
##    Sexo      Grupo   
##    <chr>     <chr>   
##  1 feminino  Controle
##  2 masculino Controle
##  3 feminino  Controle
##  4 feminino  Controle
##  5 feminino  Controle
##  6 masculino Controle
##  7 masculino Controle
##  8 feminino  Controle
##  9 feminino  Controle
## 10 feminino  Controle
## # ... with 187 more rows
…
